<svg xmlns="http://www.w3.org/2000/svg" width="428.153" height="314.026" viewBox="0 0 428.153 314.026">
  <g id="Group_126" data-name="Group 126" transform="translate(0 0.6)">
    <path id="Path_1" data-name="Path 1" d="M0,220.461s160.672,125.223,224.2,86.551S428.153.4,428.153.4H0Z" transform="translate(0 -1)" fill="#f58634"/>
    <path id="Path_2" data-name="Path 2" d="M33.434,104.813s-81.717,53.557,10.359,83.022,144.866,44.2,144.866,44.2V0Z" transform="translate(188.832 313.072) rotate(180)" fill="#2a3841"/>
  </g>
</svg>
