<svg id="Group_3" data-name="Group 3" xmlns="http://www.w3.org/2000/svg" width="30.46" height="12.644" viewBox="0 0 30.46 12.644">
  <rect id="Rectangle_11" data-name="Rectangle 11" width="30.46" height="1.149" rx="0.575" fill="#fff"/>
  <rect id="Rectangle_12" data-name="Rectangle 12" width="25.575" height="1.149" rx="0.575" transform="translate(0 5.747)" fill="#fff"/>
  <rect id="Rectangle_13" data-name="Rectangle 13" width="19.636" height="1.149" rx="0.575" transform="translate(0 11.495)" fill="#fff"/>
</svg>
