<svg xmlns="http://www.w3.org/2000/svg" width="27.241" height="19.154" viewBox="0 0 27.241 19.154">
  <path id="right-arrow" d="M18.344,4.962a.966.966,0,0,0-1.373,1.359l6.961,6.961H.961A.956.956,0,0,0,0,14.244a.967.967,0,0,0,.961.975H23.932l-6.961,6.948a.986.986,0,0,0,0,1.373.962.962,0,0,0,1.373,0l8.609-8.609a.945.945,0,0,0,0-1.359Z" transform="translate(0 -4.674)" fill="#fff"/>
</svg>
